\select@language {slovene}
\select@language {slovene}
\contentsline {chapter}{\numberline {1}Uvod}{2}{chapter.1}
\contentsline {chapter}{\numberline {2}Primeri uporabe}{3}{chapter.2}
\contentsline {section}{\numberline {2.1}Vloga anonimni odjemalec}{3}{section.2.1}
\contentsline {section}{\numberline {2.2}Vloga prijavljena stranka}{3}{section.2.2}
\contentsline {section}{\numberline {2.3}Vloga prodaja}{4}{section.2.3}
\contentsline {section}{\numberline {2.4}Vloga administrator}{4}{section.2.4}
\contentsline {chapter}{\numberline {3}Uporabni\IeC {\v s}ke pristopne to\IeC {\v c}ke}{5}{chapter.3}
\contentsline {chapter}{\numberline {4}Podatkovni model}{6}{chapter.4}
\contentsline {chapter}{\numberline {5}Varnost sistema}{8}{chapter.5}
\contentsline {chapter}{\numberline {6}Izjava o avtorstvu seminarske naloge}{9}{chapter.6}
\contentsline {chapter}{\numberline {7}Zaklju\IeC {\v c}ek}{12}{chapter.7}
