\relax 
\catcode`"\active
\providecommand\HyperFirstAtBeginDocument{\AtBeginDocument}
\HyperFirstAtBeginDocument{\ifx\hyper@anchor\@undefined
\global\let\oldcontentsline\contentsline
\gdef\contentsline#1#2#3#4{\oldcontentsline{#1}{#2}{#3}}
\global\let\oldnewlabel\newlabel
\gdef\newlabel#1#2{\newlabelxx{#1}#2}
\gdef\newlabelxx#1#2#3#4#5#6{\oldnewlabel{#1}{{#2}{#3}}}
\AtEndDocument{\ifx\hyper@anchor\@undefined
\let\contentsline\oldcontentsline
\let\newlabel\oldnewlabel
\fi}
\fi}
\global\let\hyper@last\relax 
\gdef\HyperFirstAtBeginDocument#1{#1}
\providecommand\HyField@AuxAddToFields[1]{}
\select@language{slovene}
\@writefile{toc}{\select@language{slovene}}
\@writefile{lof}{\select@language{slovene}}
\@writefile{lot}{\select@language{slovene}}
\select@language{slovene}
\@writefile{toc}{\select@language{slovene}}
\@writefile{lof}{\select@language{slovene}}
\@writefile{lot}{\select@language{slovene}}
\@writefile{toc}{\contentsline {chapter}{\numberline {1}Uvod}{2}{chapter.1}}
\@writefile{lof}{\addvspace {10\p@ }}
\@writefile{lot}{\addvspace {10\p@ }}
\@writefile{toc}{\contentsline {chapter}{\numberline {2}Primeri uporabe}{3}{chapter.2}}
\@writefile{lof}{\addvspace {10\p@ }}
\@writefile{lot}{\addvspace {10\p@ }}
\@writefile{toc}{\contentsline {section}{\numberline {2.1}Vloga anonimni odjemalec}{3}{section.2.1}}
\@writefile{toc}{\contentsline {section}{\numberline {2.2}Vloga prijavljena stranka}{3}{section.2.2}}
\@writefile{toc}{\contentsline {section}{\numberline {2.3}Vloga prodaja}{4}{section.2.3}}
\@writefile{toc}{\contentsline {section}{\numberline {2.4}Vloga administrator}{4}{section.2.4}}
\@writefile{toc}{\contentsline {chapter}{\numberline {3}Uporabni\IeC {\v s}ke pristopne to\IeC {\v c}ke}{5}{chapter.3}}
\@writefile{lof}{\addvspace {10\p@ }}
\@writefile{lot}{\addvspace {10\p@ }}
\@writefile{lof}{\contentsline {figure}{\numberline {3.1}{\ignorespaces segmenti vmesnika}}{5}{figure.3.1}}
\newlabel{Slika 1}{{3.1}{5}{segmenti vmesnika\relax }{figure.3.1}{}}
\@writefile{lof}{\contentsline {figure}{\numberline {3.2}{\ignorespaces vmesnik kupca}}{6}{figure.3.2}}
\newlabel{Slika 2}{{3.2}{6}{vmesnik kupca\relax }{figure.3.2}{}}
\@writefile{lof}{\contentsline {figure}{\numberline {3.3}{\ignorespaces vmesnik prodajalca}}{7}{figure.3.3}}
\newlabel{Slika 3}{{3.3}{7}{vmesnik prodajalca\relax }{figure.3.3}{}}
\@writefile{lof}{\contentsline {figure}{\numberline {3.4}{\ignorespaces vmesnik administratorja}}{7}{figure.3.4}}
\newlabel{Slika 4}{{3.4}{7}{vmesnik administratorja\relax }{figure.3.4}{}}
\@writefile{toc}{\contentsline {chapter}{\numberline {4}Podatkovni model}{8}{chapter.4}}
\@writefile{lof}{\addvspace {10\p@ }}
\@writefile{lot}{\addvspace {10\p@ }}
\@writefile{lof}{\contentsline {figure}{\numberline {4.1}{\ignorespaces Shema baze}}{8}{figure.4.1}}
\newlabel{Slika 1}{{4.1}{8}{Shema baze\relax }{figure.4.1}{}}
\@writefile{toc}{\contentsline {chapter}{\numberline {5}Varnost sistema}{10}{chapter.5}}
\@writefile{lof}{\addvspace {10\p@ }}
\@writefile{lot}{\addvspace {10\p@ }}
\@writefile{toc}{\contentsline {chapter}{\numberline {6}Izjava o avtorstvu seminarske naloge}{11}{chapter.6}}
\@writefile{lof}{\addvspace {10\p@ }}
\@writefile{lot}{\addvspace {10\p@ }}
\@writefile{toc}{\contentsline {chapter}{\numberline {7}Zaklju\IeC {\v c}ek}{14}{chapter.7}}
\@writefile{lof}{\addvspace {10\p@ }}
\@writefile{lot}{\addvspace {10\p@ }}
